%YAML 1.1
%TAG !u! tag:unity3d.com,2011:
--- !u!114 &299080804
MonoBehaviour:
  m_ObjectHideFlags: 0
  m_CorrespondingSourceObject: {fileID: 0}
  m_PrefabInstance: {fileID: 0}
  m_PrefabAsset: {fileID: 0}
  m_GameObject: {fileID: 1670890791461058062}
  m_Enabled: 1
  m_EditorHideFlags: 0
  m_Script: {fileID: 11500000, guid: 290faecc9ef4d224881a86ec596c6e49, type: 3}
  m_Name: 
  m_EditorClassIdentifier: 
  erase: 0
  lines:
  - {fileID: 0}
  - {fileID: 0}
  - {fileID: 0}
  - {fileID: 0}
  - {fileID: 0}
  - {fileID: 0}
  - {fileID: 0}
  - {fileID: 0}
  - {fileID: 0}
  - {fileID: 0}
  - {fileID: 0}
  - {fileID: 0}
  - {fileID: 0}
  - {fileID: 0}
  - {fileID: 0}
  - {fileID: 0}
  - {fileID: 0}
  - {fileID: 0}
  - {fileID: 0}
  - {fileID: 0}
  - {fileID: 0}
  - {fileID: 0}
  - {fileID: 0}
  - {fileID: 0}
  - {fileID: 0}
  - {fileID: 0}
  - {fileID: 0}
  - {fileID: 0}
  - {fileID: 0}
  - {fileID: 0}
  - {fileID: 0}
  - {fileID: 0}
  - {fileID: 0}
  - {fileID: 0}
  - {fileID: 0}
  - {fileID: 0}
  - {fileID: 0}
  - {fileID: 0}
  - {fileID: 0}
  - {fileID: 0}
  - {fileID: 0}
  - {fileID: 0}
  - {fileID: 0}
  - {fileID: 0}
  - {fileID: 0}
  - {fileID: 0}
  - {fileID: 0}
  - {fileID: 0}
  - {fileID: 0}
  - {fileID: 0}
  - {fileID: 0}
  - {fileID: 0}
  - {fileID: 0}
  - {fileID: 0}
  - {fileID: 0}
  - {fileID: 0}
  - {fileID: 0}
  - {fileID: 0}
  - {fileID: 0}
  - {fileID: 0}
  - {fileID: 0}
  - {fileID: 0}
  - {fileID: 0}
  - {fileID: 0}
  - {fileID: 0}
  - {fileID: 0}
  - {fileID: 0}
  - {fileID: 0}
  - {fileID: 0}
  - {fileID: 0}
  - {fileID: 0}
  - {fileID: 0}
  - {fileID: 0}
  - {fileID: 0}
  - {fileID: 0}
  - {fileID: 0}
  - {fileID: 0}
  - {fileID: 0}
  - {fileID: 0}
  - {fileID: 0}
  - {fileID: 0}
  - {fileID: 0}
  - {fileID: 0}
  - {fileID: 0}
  - {fileID: 0}
  - {fileID: 0}
  - {fileID: 0}
  - {fileID: 0}
  - {fileID: 0}
  - {fileID: 0}
  - {fileID: 0}
  - {fileID: 0}
  - {fileID: 0}
  - {fileID: 0}
  - {fileID: 0}
  - {fileID: 0}
  - {fileID: 0}
  - {fileID: 0}
  - {fileID: 0}
  - {fileID: 0}
--- !u!1001 &4877244405526405964
PrefabInstance:
  m_ObjectHideFlags: 0
  serializedVersion: 2
  m_Modification:
    m_TransformParent: {fileID: 0}
    m_Modifications:
    - target: {fileID: 6097664577035064642, guid: 0bc9555a913bfbe4d94f90b09a8c58d0,
        type: 3}
      propertyPath: m_Name
      value: Drawing
      objectReference: {fileID: 0}
    - target: {fileID: 6097664577035064641, guid: 0bc9555a913bfbe4d94f90b09a8c58d0,
        type: 3}
      propertyPath: m_LocalPosition.x
      value: 0
      objectReference: {fileID: 0}
    - target: {fileID: 6097664577035064641, guid: 0bc9555a913bfbe4d94f90b09a8c58d0,
        type: 3}
      propertyPath: m_LocalPosition.y
      value: 0
      objectReference: {fileID: 0}
    - target: {fileID: 6097664577035064641, guid: 0bc9555a913bfbe4d94f90b09a8c58d0,
        type: 3}
      propertyPath: m_LocalPosition.z
      value: 0
      objectReference: {fileID: 0}
    - target: {fileID: 6097664577035064641, guid: 0bc9555a913bfbe4d94f90b09a8c58d0,
        type: 3}
      propertyPath: m_LocalRotation.x
      value: 0
      objectReference: {fileID: 0}
    - target: {fileID: 6097664577035064641, guid: 0bc9555a913bfbe4d94f90b09a8c58d0,
        type: 3}
      propertyPath: m_LocalRotation.y
      value: 0
      objectReference: {fileID: 0}
    - target: {fileID: 6097664577035064641, guid: 0bc9555a913bfbe4d94f90b09a8c58d0,
        type: 3}
      propertyPath: m_LocalRotation.z
      value: 0
      objectReference: {fileID: 0}
    - target: {fileID: 6097664577035064641, guid: 0bc9555a913bfbe4d94f90b09a8c58d0,
        type: 3}
      propertyPath: m_LocalRotation.w
      value: 1
      objectReference: {fileID: 0}
    - target: {fileID: 6097664577035064641, guid: 0bc9555a913bfbe4d94f90b09a8c58d0,
        type: 3}
      propertyPath: m_RootOrder
      value: 0
      objectReference: {fileID: 0}
    - target: {fileID: 6097664577035064641, guid: 0bc9555a913bfbe4d94f90b09a8c58d0,
        type: 3}
      propertyPath: m_LocalEulerAnglesHint.x
      value: 0
      objectReference: {fileID: 0}
    - target: {fileID: 6097664577035064641, guid: 0bc9555a913bfbe4d94f90b09a8c58d0,
        type: 3}
      propertyPath: m_LocalEulerAnglesHint.y
      value: 0
      objectReference: {fileID: 0}
    - target: {fileID: 6097664577035064641, guid: 0bc9555a913bfbe4d94f90b09a8c58d0,
        type: 3}
      propertyPath: m_LocalEulerAnglesHint.z
      value: 0
      objectReference: {fileID: 0}
    - target: {fileID: 6097664577035064641, guid: 0bc9555a913bfbe4d94f90b09a8c58d0,
        type: 3}
      propertyPath: m_AnchoredPosition.x
      value: 0
      objectReference: {fileID: 0}
    - target: {fileID: 6097664577035064641, guid: 0bc9555a913bfbe4d94f90b09a8c58d0,
        type: 3}
      propertyPath: m_AnchoredPosition.y
      value: 0
      objectReference: {fileID: 0}
    - target: {fileID: 6097664577035064641, guid: 0bc9555a913bfbe4d94f90b09a8c58d0,
        type: 3}
      propertyPath: m_SizeDelta.x
      value: 100
      objectReference: {fileID: 0}
    - target: {fileID: 6097664577035064641, guid: 0bc9555a913bfbe4d94f90b09a8c58d0,
        type: 3}
      propertyPath: m_SizeDelta.y
      value: 100
      objectReference: {fileID: 0}
    - target: {fileID: 6097664577035064641, guid: 0bc9555a913bfbe4d94f90b09a8c58d0,
        type: 3}
      propertyPath: m_AnchorMin.x
      value: 0.5
      objectReference: {fileID: 0}
    - target: {fileID: 6097664577035064641, guid: 0bc9555a913bfbe4d94f90b09a8c58d0,
        type: 3}
      propertyPath: m_AnchorMin.y
      value: 0.5
      objectReference: {fileID: 0}
    - target: {fileID: 6097664577035064641, guid: 0bc9555a913bfbe4d94f90b09a8c58d0,
        type: 3}
      propertyPath: m_AnchorMax.x
      value: 0.5
      objectReference: {fileID: 0}
    - target: {fileID: 6097664577035064641, guid: 0bc9555a913bfbe4d94f90b09a8c58d0,
        type: 3}
      propertyPath: m_AnchorMax.y
      value: 0.5
      objectReference: {fileID: 0}
    - target: {fileID: 6097664577035064641, guid: 0bc9555a913bfbe4d94f90b09a8c58d0,
        type: 3}
      propertyPath: m_Pivot.x
      value: 0.5
      objectReference: {fileID: 0}
    - target: {fileID: 6097664577035064641, guid: 0bc9555a913bfbe4d94f90b09a8c58d0,
        type: 3}
      propertyPath: m_Pivot.y
      value: 0.5
      objectReference: {fileID: 0}
    - target: {fileID: 4624055447643156123, guid: 0bc9555a913bfbe4d94f90b09a8c58d0,
        type: 3}
      propertyPath: m_LocalScale.x
      value: 0.5
      objectReference: {fileID: 0}
    - target: {fileID: 4624055447643156123, guid: 0bc9555a913bfbe4d94f90b09a8c58d0,
        type: 3}
      propertyPath: m_LocalScale.y
      value: 0.5
      objectReference: {fileID: 0}
    - target: {fileID: 253145861, guid: 0bc9555a913bfbe4d94f90b09a8c58d0, type: 3}
      propertyPath: m_Color.r
      value: 0.28751338
      objectReference: {fileID: 0}
    - target: {fileID: 253145861, guid: 0bc9555a913bfbe4d94f90b09a8c58d0, type: 3}
      propertyPath: m_Color.g
      value: 0.75144136
      objectReference: {fileID: 0}
    - target: {fileID: 253145861, guid: 0bc9555a913bfbe4d94f90b09a8c58d0, type: 3}
      propertyPath: m_Color.b
      value: 0.8584906
      objectReference: {fileID: 0}
    - target: {fileID: 1337323677546484568, guid: 0bc9555a913bfbe4d94f90b09a8c58d0,
        type: 3}
      propertyPath: m_Color.r
      value: 0.745283
      objectReference: {fileID: 0}
    - target: {fileID: 1337323677546484568, guid: 0bc9555a913bfbe4d94f90b09a8c58d0,
        type: 3}
      propertyPath: m_Color.g
      value: 0.745283
      objectReference: {fileID: 0}
    - target: {fileID: 1337323677546484568, guid: 0bc9555a913bfbe4d94f90b09a8c58d0,
        type: 3}
      propertyPath: m_Color.b
      value: 0.745283
      objectReference: {fileID: 0}
    - target: {fileID: 1337323677546484568, guid: 0bc9555a913bfbe4d94f90b09a8c58d0,
        type: 3}
      propertyPath: m_Sprite
      value: 
      objectReference: {fileID: 21300000, guid: 7e7b4f0867af1534c9e8714de9326021,
        type: 3}
    m_RemovedComponents: []
  m_SourcePrefab: {fileID: 100100000, guid: 0bc9555a913bfbe4d94f90b09a8c58d0, type: 3}
--- !u!1 &1670890791461058062 stripped
GameObject:
  m_CorrespondingSourceObject: {fileID: 6097664577035064642, guid: 0bc9555a913bfbe4d94f90b09a8c58d0,
    type: 3}
  m_PrefabInstance: {fileID: 4877244405526405964}
  m_PrefabAsset: {fileID: 0}
